{"code":200,"data":{"content":[{"banner":"http://xqtopic.xiangqu.com/FjAUw767mA8IRuCx9nsOaNI6MlXV?imageView2/2/w/640/q/90/format/jpg/960x645/","fansNum":null,"id":113,"intro":"秒龙 首席产品设计师曾获中国三彩杯第三届创意设计大赛铜奖2015海峡两岸文化创意与传统艺术展，荣获”最佳创新设计奖“。","isFollow":null,"items":null,"opTag":"设计师","productNum":92,"products":null,"shareUrl":null,"shopId":"70wvoutw","shopName":"阀匠工坊","tags":[{"categoryId":1,"id":5,"image":"http://xqtopic.xiangqu.com/FoZhjIiTPPcYv8-fsUqE4IPqiHqo?imageView2/2/w/320/q/90/format/jpg/480x480/","name":"生活家居"},{"categoryId":2,"id":12,"image":"http://xqtopic.xiangqu.com/FhNu5i_mDOUVPv-Ym3MqyhJqO0qx?imageView2/2/w/320/q/90/format/jpg/480x480/","name":"中国风"}],"userAvatar":"http://xquser.xiangqu.com/FmDwzRhxCJA800NCVA9Q9ABi_M13?imageView2/2/w/120/q/90/format/jpg/480x480/","userId":856153,"userNick":"秒龙"},{"banner":"http://xqtopic.xiangqu.com/FpFWkKRiqsKdci8FRxApeplgzFJe?imageView2/2/w/640/q/90/format/jpg/960x645/","fansNum":null,"id":230,"intro":"郑泽群和设计师Kiamhong,为大学校友。工作数年间，有感于主流审美对女性美片面的理解与夸大，于2015年共同创立独立服饰品牌—kitann ino。","isFollow":null,"items":null,"opTag":"品牌联合创始人","productNum":55,"products":null,"shareUrl":null,"shopId":"aj6viht2","shopName":"kitann ino","tags":[{"categoryId":1,"id":2,"image":"http://xqtopic.xiangqu.com/FjojCURz9jqGZvv3l40gkwy3MlyD?imageView2/2/w/320/q/90/format/jpg/480x480/","name":"女装"},{"categoryId":2,"id":7,"image":"http://xqtopic.xiangqu.com/FufKBQTKN9sJhmPi5Y6JQbaAqIs2?imageView2/2/w/320/q/90/format/jpg/480x480/","name":"简约"}],"userAvatar":"http://xquser.xiangqu.com/FlsurV-or-WUi81LPXMeGxMkIx94?imageView2/2/w/120/q/90/format/jpg/493x607/","userId":824580,"userNick":"zequn"},{"banner":"http://xqtopic.xiangqu.com/Fsq2SkWmWekZGuWF89eT-8oAROBQ?imageView2/2/w/640/q/90/format/jpg/960x645/","fansNum":null,"id":227,"intro":"任鸿飞\r\n简木家具首席设计师\r\n发现与分享生活之美","isFollow":null,"items":null,"opTag":"家具设计师","productNum":31,"products":null,"shareUrl":null,"shopId":"cwwnyg","shopName":"简木","tags":[{"categoryId":1,"id":5,"image":"http://xqtopic.xiangqu.com/FoZhjIiTPPcYv8-fsUqE4IPqiHqo?imageView2/2/w/320/q/90/format/jpg/480x480/","name":"生活家居"},{"categoryId":2,"id":7,"image":"http://xqtopic.xiangqu.com/FufKBQTKN9sJhmPi5Y6JQbaAqIs2?imageView2/2/w/320/q/90/format/jpg/480x480/","name":"简约"}],"userAvatar":"http://xquser.xiangqu.com/FmfGeyUd_xNeMjoop84jSp8yTU4B?imageView2/2/w/120/q/90/format/jpg/662x662/","userId":592432,"userNick":"简木"},{"banner":"http://xqtopic.xiangqu.com/FnfSBQmtstc9x_b-YFfEgZ4MY-BW?imageView2/2/w/640/q/90/format/jpg/960x645/","fansNum":null,"id":218,"intro":"曹跃西\r\n\r\n中国包装联合会全国委员\r\nLiangpu良朴袜品牌创始人、艺术总监\r\n作为一个平面设计师，曹跃西在设计中一直提倡大设计概念，专注于视觉与品牌的设计与咨询服务，通过远瞻性个识别规划创建，为客户实现品牌增值。注重作品功能，希望作品非“平面”、非“设计”。从业十多年间，作品屡获各级奖项数十项。近年来，设计取向更多倾向于对包装盒新媒体的功能拓展及应用。","isFollow":null,"items":null,"opTag":"品牌创始人、设计总监","productNum":115,"products":null,"shareUrl":null,"shopId":"ca0qsb6f","shopName":"良朴旗舰店","tags":[{"categoryId":1,"id":3,"image":"http://xqtopic.xiangqu.com/Fvc2bHTCbWBeVSC8r7RWnDor0KKW?imageView2/2/w/320/q/90/format/jpg/480x480/","name":"配饰"},{"categoryId":2,"id":7,"image":"http://xqtopic.xiangqu.com/FufKBQTKN9sJhmPi5Y6JQbaAqIs2?imageView2/2/w/320/q/90/format/jpg/480x480/","name":"简约"}],"userAvatar":"http://xquser.xiangqu.com/Fg9qnWV3mmPwEMn0wduqqOwIqm_J?imageView2/2/w/120/q/90/format/jpg/480x480/","userId":214871,"userNick":"曹跃西"},{"banner":"http://xqtopic.xiangqu.com/Fhnm1soEM4LsjkpkXqHPHiuk29nN?imageView2/2/w/640/q/90/format/jpg/960x645/","fansNum":null,"id":35,"intro":"宋夏于2012年开始接触竹制品设计和新品研发，所有的设计都来源于日常生活，手动去改设计的模型，她始终觉得好用好看的设计应该服务于人们的生活。","isFollow":null,"items":null,"opTag":"品牌联合创始人","productNum":0,"products":null,"shareUrl":null,"shopId":"70wx7470","shopName":"墨上设计工作室 ","tags":[{"categoryId":1,"id":5,"image":"http://xqtopic.xiangqu.com/FoZhjIiTPPcYv8-fsUqE4IPqiHqo?imageView2/2/w/320/q/90/format/jpg/480x480/","name":"生活家居"},{"categoryId":2,"id":7,"image":"http://xqtopic.xiangqu.com/FufKBQTKN9sJhmPi5Y6JQbaAqIs2?imageView2/2/w/320/q/90/format/jpg/480x480/","name":"简约"},{"categoryId":2,"id":8,"image":"http://xqtopic.xiangqu.com/Fr2walMIxKIxwyFFqQvwQdv6gKRW?imageView2/2/w/320/q/90/format/jpg/480x480/","name":"日式"}],"userAvatar":"http://xquser.xiangqu.com/FtoKW_xaQcICwOXuZ4cPU4B2OAMk?imageView2/2/w/100/q/90/format/jpg/100x100/","userId":331685,"userNick":"宋夏"},{"banner":"http://xqtopic.xiangqu.com/Fn_4d2GjIM8eM1i27dj5KlGSHzAn?imageView2/2/w/640/q/90/format/jpg/960x645/","fansNum":null,"id":136,"intro":"大鱼，伪视觉设计师、伪手作者。来自海岛，天性使然，喜爱自然。喜欢用双手创造。\r\n","isFollow":null,"items":null,"opTag":"品牌创始人，设计师","productNum":64,"products":null,"shareUrl":null,"shopId":"3imwhfki","shopName":"asmountain像山","tags":[{"categoryId":1,"id":4,"image":"http://xqtopic.xiangqu.com/FvxeEEF9tmUonsvbxBlKSou7bfFB?imageView2/2/w/320/q/90/format/jpg/480x480/","name":"箱包"},{"categoryId":2,"id":11,"image":"http://xqtopic.xiangqu.com/Fnn-7RVz7FoOhN50ujPR9KQESp7g?imageView2/2/w/320/q/90/format/jpg/480x480/","name":"复古风"}],"userAvatar":"http://xquser.xiangqu.com/FlQFczXk33G6zB6KY6MyW1QqUQeC?imageView2/2/w/120/q/90/format/jpg/480x480/","userId":512388,"userNick":"像山杂货屋"},{"banner":"http://xqtopic.xiangqu.com/FjrgyFFZ3b9XKL6smrJnNIFhfTEg?imageView2/2/w/640/q/90/format/jpg/960x645/","fansNum":null,"id":135,"intro":"2012年毕业于山东艺术学院装饰艺术设计专业并获学士学位；2013年在北京创立自己的“尚末”独立首饰设计师品牌工作室；现跟随亚洲珠宝艺术家朴载林大师学习精工珠宝制作。他的作品以简约式中国风为主要风格，关注人们心中谨小慎微的小祈愿、小美好、温良的个性以及内心深处所向往的渺远深处的宁静等细微的情感。","isFollow":null,"items":null,"opTag":"品牌创始人、首饰设计师","productNum":28,"products":null,"shareUrl":null,"shopId":"ca0oufdr","shopName":"尚末独立首饰设计师品牌","tags":[{"categoryId":1,"id":3,"image":"http://xqtopic.xiangqu.com/Fvc2bHTCbWBeVSC8r7RWnDor0KKW?imageView2/2/w/320/q/90/format/jpg/480x480/","name":"配饰"},{"categoryId":2,"id":12,"image":"http://xqtopic.xiangqu.com/FhNu5i_mDOUVPv-Ym3MqyhJqO0qx?imageView2/2/w/320/q/90/format/jpg/480x480/","name":"中国风"}],"userAvatar":"http://xquser.xiangqu.com/Fs7raSwqZ35t6scfiQidQA7KMG26?imageView2/2/w/120/q/90/format/jpg/480x480/","userId":120353,"userNick":"孟祥东"},{"banner":"http://xqtopic.xiangqu.com/FpmtuHWP6eeQYMY1QyrSDNrb3tZZ?imageView2/2/w/640/q/90/format/jpg/960x640/","fansNum":null,"id":167,"intro":"林嘉，拾用REMIX设计师，擅长将废弃物上原有的痕迹重新用另一个视角诠释，制造出一个特别的物品。喜欢在街头收集信息，生鲜热辣的市井，是灵感迸发的地方，喜欢鲜活、五彩的世界，热爱美食、烹饪，欣赏有独立思考的人。","isFollow":null,"items":null,"opTag":"品牌创始人，设计师","productNum":18,"products":null,"shareUrl":null,"shopId":"aj6vgqli","shopName":"拾用REMIX","tags":[{"categoryId":1,"id":4,"image":"http://xqtopic.xiangqu.com/FvxeEEF9tmUonsvbxBlKSou7bfFB?imageView2/2/w/320/q/90/format/jpg/480x480/","name":"箱包"},{"categoryId":2,"id":11,"image":"http://xqtopic.xiangqu.com/Fnn-7RVz7FoOhN50ujPR9KQESp7g?imageView2/2/w/320/q/90/format/jpg/480x480/","name":"复古风"}],"userAvatar":"http://xquser.xiangqu.com/Fk6P1qfUNXfejW2QlpISAW0FcJSM?imageView2/2/w/120/q/90/format/jpg/480x480/","userId":572499,"userNick":"林嘉"},{"banner":"http://xqtopic.xiangqu.com/FjH6vKf0UlNcK1r7WX8sbzlWdL7b?imageView2/2/w/640/q/90/format/jpg/960x645/","fansNum":null,"id":154,"intro":"陈薇 Vivi\r\n2008年 就读于上海莱佛士国际时装设计学院\r\n于2011年创办EEDEN衣单服饰品牌\r\n借由服装讲述一段关于独立，真我的故事","isFollow":null,"items":null,"opTag":"品牌创始人、时装设计师","productNum":76,"products":null,"shareUrl":null,"shopId":"70wvdyz0","shopName":"EEDEN衣单","tags":[{"categoryId":1,"id":2,"image":"http://xqtopic.xiangqu.com/FjojCURz9jqGZvv3l40gkwy3MlyD?imageView2/2/w/320/q/90/format/jpg/480x480/","name":"女装"},{"categoryId":2,"id":7,"image":"http://xqtopic.xiangqu.com/FufKBQTKN9sJhmPi5Y6JQbaAqIs2?imageView2/2/w/320/q/90/format/jpg/480x480/","name":"简约"}],"userAvatar":"http://xquser.xiangqu.com/FiJFQca7ILLo3CCT5DLLNwDCmWHC?imageView2/2/w/120/q/90/format/jpg/480x480/","userId":903622,"userNick":"陈薇"},{"banner":"http://xqtopic.xiangqu.com/FhIyg4llDZD_1INjLRkmSuDI6PH4?imageView2/2/w/640/q/90/format/jpg/960x450/","fansNum":null,"id":186,"intro":"Jadah——一个任性为异想执着的年轻人。","isFollow":null,"items":null,"opTag":"品牌创始人、设计师","productNum":74,"products":null,"shareUrl":null,"shopId":"cwzh1k","shopName":"RETHINK","tags":[{"categoryId":1,"id":1,"image":"http://xqtopic.xiangqu.com/FroXs6KuF3MImr3m-Wct0vRuTvvi?imageView2/2/w/320/q/90/format/jpg/480x480/","name":"男装"},{"categoryId":2,"id":9,"image":"http://xqtopic.xiangqu.com/FtDrch3a-eTYjDgkg0x1_3IRc9Ig?imageView2/2/w/320/q/90/format/jpg/480x480/","name":"潮派"}],"userAvatar":"http://xquser.xiangqu.com/FgwvLAhhezApksaPHS-Ks_bQXUfx?imageView2/2/w/120/q/90/format/jpg/480x480/","userId":16655891,"userNick":"Jadah"},{"banner":"http://xqtopic.xiangqu.com/Fhc6CfllKGU21rJc1XNz8tOBE-X-?imageView2/2/w/640/q/90/format/jpg/960x645/","fansNum":null,"id":192,"intro":"龚斌，又称若谷，是个萌大叔，\r\n他的名字取自《道德经》“旷兮其若谷”，\r\n大家都喜欢叫他谷蜀黍。\r\n他总说自己很木讷，\r\n就低下头来坚持手作，\r\n让产品成为自己的嘴巴，\r\n传递自然健康的生活方式，\r\n挑战年轻人的规则。","isFollow":null,"items":null,"opTag":"品牌创始人、美食手艺人","productNum":0,"products":null,"shareUrl":null,"shopId":"3imw72q2","shopName":"若谷手作","tags":[{"categoryId":1,"id":6,"image":"http://xqtopic.xiangqu.com/FrjGg1NX2s5dYtT2Lzrq0iiI2Efx?imageView2/2/w/320/q/90/format/jpg/480x480/","name":"美食"}],"userAvatar":"http://xquser.xiangqu.com/FoMLayVjggwc3N994eAh9GPii9Fd?imageView2/2/w/120/q/90/format/jpg/480x480/","userId":16671871,"userNick":"龚斌"},{"banner":"http://xqtopic.xiangqu.com/FuSClKSRKipxOZWlC2Hk8_4vy_VM?imageView2/2/w/640/q/90/format/jpg/960x645/","fansNum":null,"id":69,"intro":"用针缝出人生. 用线流传世间. 用手创造未来.用心感悟世界, 用人散发魅力, 用音乐震叹心灵, 用脚走出辉煌。\r\nUsing needle to sew out life , using gleam to circulate creates future in society, with hand , intention comes to realize the world , the servant gives off charm, sigh with music earthquake intelligent , use foot to step off splendid.","isFollow":null,"items":null,"opTag":"品牌联合创始人","productNum":27,"products":null,"shareUrl":null,"shopId":"3imwhs9e","shopName":"MOGU猫古","tags":[{"categoryId":1,"id":5,"image":"http://xqtopic.xiangqu.com/FoZhjIiTPPcYv8-fsUqE4IPqiHqo?imageView2/2/w/320/q/90/format/jpg/480x480/","name":"生活家居"},{"categoryId":2,"id":10,"image":"http://xqtopic.xiangqu.com/Fhbjzf07kv8v9mk58t7JIjzz32x1?imageView2/2/w/320/q/90/format/jpg/480x480/","name":"甜美"}],"userAvatar":"http://xquser.xiangqu.com/FnbkvsDxR-HApFTYsbp-IsbBxcMB?imageView2/2/w/120/q/90/format/jpg/156x156/","userId":51863,"userNick":"MOGU"},{"banner":"http://xqtopic.xiangqu.com/FovJM1YkOJaYMlvRXJaz_xNLUJ4x?imageView2/2/w/640/q/90/format/jpg/960x645/","fansNum":null,"id":91,"intro":"Mimo（陈斯琪），网络id@米魔mimimo，曾是腾讯高级游戏美术设计师的美术专家，参与过多款国民级的手游项目研发。正因为美术风格在网络世界获得大众肯定，不愿只把设计作品和眼光只局限在虚拟领域。2015年狠心放下腾讯高薪厚职，而转战服装行业，这个充满二次元视觉效果与三次元潮流元素互相碰撞的火花世界，正是她一心想打造的新领域。源源不断的设计灵感都来源我们于对次元的爱。","isFollow":null,"items":null,"opTag":"设计师","productNum":19,"products":null,"shareUrl":null,"shopId":"8s1wvbwd","shopName":"MIMO","tags":[{"categoryId":1,"id":2,"image":"http://xqtopic.xiangqu.com/FjojCURz9jqGZvv3l40gkwy3MlyD?imageView2/2/w/320/q/90/format/jpg/480x480/","name":"女装"},{"categoryId":2,"id":8,"image":"http://xqtopic.xiangqu.com/Fr2walMIxKIxwyFFqQvwQdv6gKRW?imageView2/2/w/320/q/90/format/jpg/480x480/","name":"日式"}],"userAvatar":"http://xquser.xiangqu.com/Fr54YV99wJX3OcD_mBOX5TrzP8Bc?imageView2/2/w/120/q/90/format/jpg/480x480/","userId":957422,"userNick":"MIMO"},{"banner":"http://xqtopic.xiangqu.com/FoKNVQg3n4SHhS8ico1Wu7rdK1Pg?imageView2/2/w/640/q/90/format/jpg/960x645/","fansNum":null,"id":36,"intro":"我是奇兰，对白茶舍创始人。我曾是一位工作了13年的资深设计师，因为爱茶，2014年，我和爱人双双从阿里辞职，在杭州龙井山建起一座大房子。它就是对白茶舍第一家线下体验馆，我们把它叫做「对白.风敲竹」。","isFollow":null,"items":null,"opTag":"品牌联合创始人、产品设计师","productNum":0,"products":null,"shareUrl":null,"shopId":"70lt7tf8","shopName":"对白茶舍","tags":[{"categoryId":1,"id":6,"image":"http://xqtopic.xiangqu.com/FrjGg1NX2s5dYtT2Lzrq0iiI2Efx?imageView2/2/w/320/q/90/format/jpg/480x480/","name":"美食"}],"userAvatar":"http://xquser.xiangqu.com/portrait18684883709.jpg?imageView2/2/w/120/q/90/format/jpg/480x480/","userId":208359,"userNick":"奇兰"},{"banner":"http://xqtopic.xiangqu.com/FiisGpFUixYYtCrRtTss_E3r1jpa?imageView2/2/w/640/q/90/format/jpg/960x645/","fansNum":null,"id":29,"intro":"黄兆－物应独立家具品牌创始人\r\n王柏寒－物应独立家具品牌设计师","isFollow":null,"items":null,"opTag":"品牌创始人、家具设计师","productNum":59,"products":null,"shareUrl":null,"shopId":"cxi68o","shopName":"物应","tags":[{"categoryId":1,"id":5,"image":"http://xqtopic.xiangqu.com/FoZhjIiTPPcYv8-fsUqE4IPqiHqo?imageView2/2/w/320/q/90/format/jpg/480x480/","name":"生活家居"},{"categoryId":2,"id":7,"image":"http://xqtopic.xiangqu.com/FufKBQTKN9sJhmPi5Y6JQbaAqIs2?imageView2/2/w/320/q/90/format/jpg/480x480/","name":"简约"},{"categoryId":2,"id":12,"image":"http://xqtopic.xiangqu.com/FhNu5i_mDOUVPv-Ym3MqyhJqO0qx?imageView2/2/w/320/q/90/format/jpg/480x480/","name":"中国风"}],"userAvatar":"http://xquser.xiangqu.com/FrHVnG8lxTHeZt0a8lcAvRXxQrbF?imageView2/2/w/120/q/90/format/jpg/480x480/","userId":302337,"userNick":"黄兆"},{"banner":"http://xqtopic.xiangqu.com/FqrJh_e_tchlknGS7wFthIm7eKUI?imageView2/2/w/640/q/90/format/jpg/960x645/","fansNum":null,"id":236,"intro":"Moky莫亞\r\n毕业于中国美术学院服装系本科。\r\n2014-2016年工作于优衣库R&D部。\r\n于2016年9月创办品牌IMOK DESIGN。\r\n致力于做简约，舒适，型格的设计，给纯粹，沉着，心有执念的你。","isFollow":null,"items":null,"opTag":"品牌创始人、设计师","productNum":30,"products":null,"shareUrl":null,"shopId":"70wwch0k","shopName":"IMOK DESIGN","tags":[{"categoryId":1,"id":2,"image":"http://xqtopic.xiangqu.com/FjojCURz9jqGZvv3l40gkwy3MlyD?imageView2/2/w/320/q/90/format/jpg/480x480/","name":"女装"},{"categoryId":2,"id":7,"image":"http://xqtopic.xiangqu.com/FufKBQTKN9sJhmPi5Y6JQbaAqIs2?imageView2/2/w/320/q/90/format/jpg/480x480/","name":"简约"}],"userAvatar":"http://xquser.xiangqu.com/FsymfslFCPOiOZyJ04DboiMjy8VS?imageView2/2/w/120/q/90/format/jpg/1064x1065/","userId":587632,"userNick":"Moky莫亞"},{"banner":"http://xqtopic.xiangqu.com/FmtaO8VXRZ_fdmNDf9iMCw2C5TZP?imageView2/2/w/640/q/90/format/jpg/960x645/","fansNum":null,"id":107,"intro":"我是丁帅，不是巧克力工匠，更非巧克力鉴赏家。\r\n有着18年营销经验，曾在康师傅华东区担任市场主管、奥美中国任事业总监。曾经帮助很多客户解决品牌问题，而现在，面对传统业务的不景气和气势汹汹的“互联网思维”，我决定用一块足够好的巧克力，去解开心中的万千疑惑。","isFollow":null,"items":null,"opTag":"品牌创始人","productNum":17,"products":null,"shareUrl":null,"shopId":"cxvylc","shopName":"驯鹿deershop","tags":[{"categoryId":1,"id":6,"image":"http://xqtopic.xiangqu.com/FrjGg1NX2s5dYtT2Lzrq0iiI2Efx?imageView2/2/w/320/q/90/format/jpg/480x480/","name":"美食"}],"userAvatar":"http://xquser.xiangqu.com/FgpkXXvYoD6XneCXpzUuIPRt4X8a?imageView2/2/w/120/q/90/format/jpg/342x343/","userId":828035,"userNick":"丁帅"},{"banner":"http://xqtopic.xiangqu.com/FhlrHlPcflqamTAifxEQ1xf4LBTE?imageView2/2/w/640/q/90/format/jpg/960x645/","fansNum":null,"id":2,"intro":"李茶德品牌创始人。跨界设计师。毕业于英国伯明翰城市大学设计与艺术学院，曾与英国最大高街品牌New Look担任设计师。回国后从事设计管理类工作，后创办文化创意公司并于2015年创立了李茶德“时髦龙井”系列。","isFollow":null,"items":null,"opTag":"品牌创始人","productNum":14,"products":null,"shareUrl":null,"shopId":"1rhwsydt","shopName":"李茶德","tags":[{"categoryId":1,"id":6,"image":"http://xqtopic.xiangqu.com/FrjGg1NX2s5dYtT2Lzrq0iiI2Efx?imageView2/2/w/320/q/90/format/jpg/480x480/","name":"美食"}],"userAvatar":"http://xquser.xiangqu.com/portrait13968173041.jpg?imageView2/2/w/120/q/90/format/jpg/480x480/","userId":457990,"userNick":"Lynn"},{"banner":"http://xqtopic.xiangqu.com/Fv-HTEFSa0HA370-hZSEwtYbMFio?imageView2/2/w/640/q/90/format/jpg/960x645/","fansNum":null,"id":6,"intro":"在16岁时开始用她的第一台缝纫机做衣服,Jenny的设计理念来自对世界多元文化的吸收和对艺术、设计与建筑在美学上的表达。","isFollow":null,"items":null,"opTag":"品牌联合创始人","productNum":103,"products":null,"shareUrl":null,"shopId":"70wwbuzo","shopName":"Young Chinese Blood","tags":[{"categoryId":1,"id":3,"image":"http://xqtopic.xiangqu.com/Fvc2bHTCbWBeVSC8r7RWnDor0KKW?imageView2/2/w/320/q/90/format/jpg/480x480/","name":"配饰"},{"categoryId":2,"id":7,"image":"http://xqtopic.xiangqu.com/FufKBQTKN9sJhmPi5Y6JQbaAqIs2?imageView2/2/w/320/q/90/format/jpg/480x480/","name":"简约"}],"userAvatar":"http://xquser.xiangqu.com/Fk7LTYHMwgbFJAw9FVv2P4wEwJAo?imageView2/2/w/120/q/90/format/jpg/600x600/","userId":953824,"userNick":"XingZhao"},{"banner":"http://xqtopic.xiangqu.com/Fs64fb16NGva73Oc4xNpyDzLvoj8?imageView2/2/w/640/q/90/format/jpg/960x645/","fansNum":null,"id":171,"intro":"宋懿\r\n北京服装学院珠宝首饰专业的老师；\r\n珠宝设计品牌one&one的首饰设计师；\r\n从2007年留校任教之后创办个人珠宝设计品牌one&one至今，已有9年。","isFollow":null,"items":null,"opTag":"品牌联合创始人、首饰设计师","productNum":34,"products":null,"shareUrl":null,"shopId":"cabuikd3","shopName":"One&One","tags":[{"categoryId":1,"id":3,"image":"http://xqtopic.xiangqu.com/Fvc2bHTCbWBeVSC8r7RWnDor0KKW?imageView2/2/w/320/q/90/format/jpg/480x480/","name":"配饰"},{"categoryId":2,"id":7,"image":"http://xqtopic.xiangqu.com/FufKBQTKN9sJhmPi5Y6JQbaAqIs2?imageView2/2/w/320/q/90/format/jpg/480x480/","name":"简约"}],"userAvatar":"http://xquser.xiangqu.com/Fg8mVZzSXurYDP9WoGMByoVam9-f?imageView2/2/w/120/q/90/format/jpg/480x480/","userId":927457,"userNick":"宋懿"}],"first":true,"last":false,"number":0,"numberOfElements":20,"size":20,"sort":null,"totalElements":191,"totalPages":10},"msg":null,"success":true}